module testDay

go 1.18

require (
	github.com/99designs/gqlgen v0.17.2
	github.com/Pallinder/go-randomdata v1.2.0
	github.com/vektah/gqlparser/v2 v2.4.0
)

require (
	github.com/agnivade/levenshtein v1.1.0 // indirect
	github.com/cpuguy83/go-md2man/v2 v2.0.1 // indirect
	github.com/gorilla/websocket v1.4.2 // indirect
	github.com/hashicorp/golang-lru v0.5.0 // indirect
	github.com/matryer/moq v0.2.3 // indirect
	github.com/mitchellh/mapstructure v1.2.3 // indirect
	github.com/russross/blackfriday/v2 v2.1.0 // indirect
	github.com/urfave/cli/v2 v2.3.0 // indirect
	golang.org/x/mod v0.5.1 // indirect
	golang.org/x/sys v0.0.0-20211019181941-9d821ace8654 // indirect
	golang.org/x/tools v0.1.9 // indirect
	golang.org/x/xerrors v0.0.0-20200804184101-5ec99f83aff1 // indirect
	gopkg.in/yaml.v2 v2.2.8 // indirect
)
